<svg xmlns="http://www.w3.org/2000/svg" viewBox="0 0 15 11">
  <defs>
    <style>
      .cls-1 {
        fill: #707070;
      }
    </style>
  </defs>
  <path id="ruler-solid" class="cls-1" d="M14.843,19.489l-1.866-3.1a.764.764,0,0,0-1.019-.264l-1.617.9,1.4,2.33a.176.176,0,0,1-.068.245l-.323.179a.19.19,0,0,1-.255-.066l-1.4-2.328L8.4,18.094l.654,1.086a.176.176,0,0,1-.068.245l-.323.179a.19.19,0,0,1-.255-.066l-.654-1.084-1.294.717,1.4,2.33a.176.176,0,0,1-.068.245l-.323.179a.19.19,0,0,1-.255-.066l-1.4-2.33-1.294.717.654,1.086a.176.176,0,0,1-.068.245l-.323.179a.19.19,0,0,1-.255-.066L3.875,20.6l-1.294.717,1.4,2.33a.176.176,0,0,1-.068.245l-.323.179a.19.19,0,0,1-.255-.066l-1.4-2.324-1.617.9a.7.7,0,0,0-.274.981l1.866,3.107a.764.764,0,0,0,1.019.264l4.317-2.4,7.326-4.064a.7.7,0,0,0,.272-.981Z" transform="translate(0.057 -16.025)"/>
</svg>
