<svg xmlns="http://www.w3.org/2000/svg" viewBox="0 0 30 30">
  <path id="bullseye-solid" d="M15,8A15,15,0,1,0,30,23,15,15,0,0,0,15,8Zm0,26.129A11.129,11.129,0,1,1,26.129,23,11.123,11.123,0,0,1,15,34.129Zm0-18.871A7.742,7.742,0,1,0,22.742,23,7.742,7.742,0,0,0,15,15.258Zm0,11.613A3.871,3.871,0,1,1,18.871,23,3.875,3.875,0,0,1,15,26.871Z" transform="translate(0 -8)"/>
</svg>
