<svg xmlns="http://www.w3.org/2000/svg" viewBox="0 0 13.75 11">
  <defs>
    <style>
      .cls-1 {
        fill: #707070;
      }
    </style>
  </defs>
  <path id="balance-scale-solid" class="cls-1" d="M5.5,7.219h0c0-.348.029-.188-1.827-3.9a1.032,1.032,0,0,0-1.845,0C-.044,7.063,0,6.882,0,7.219H0c0,.949,1.231,1.719,2.75,1.719S5.5,8.168,5.5,7.219ZM2.75,3.781,4.3,6.875H1.2Zm11,3.438c0-.348.029-.188-1.827-3.9a1.032,1.032,0,0,0-1.845,0C8.206,7.063,8.25,6.882,8.25,7.219h0c0,.949,1.231,1.719,2.75,1.719s2.75-.77,2.75-1.719Zm-4.3-.344L11,3.781l1.547,3.094Zm1.891,2.75H7.563V3.292a1.72,1.72,0,0,0,1-1.23h2.785a.344.344,0,0,0,.344-.344V1.031a.344.344,0,0,0-.344-.344h-3.1a1.7,1.7,0,0,0-2.735,0h-3.1a.344.344,0,0,0-.344.344v.688a.344.344,0,0,0,.344.344H5.191a1.72,1.72,0,0,0,1,1.23V9.625H2.406a.344.344,0,0,0-.344.344v.688A.344.344,0,0,0,2.406,11h8.938a.344.344,0,0,0,.344-.344V9.969A.344.344,0,0,0,11.344,9.625Z"/>
</svg>
